-- Merging decision tree log ---
manifest
ADDED from F:\fluttertrux24\Trux24Apps\trux24apps\android\app\src\main\AndroidManifest.xml:1:1-30:12
INJECTED from F:\fluttertrux24\Trux24Apps\trux24apps\android\app\src\main\AndroidManifest.xml:1:1-30:12
INJECTED from F:\fluttertrux24\Trux24Apps\trux24apps\android\app\src\main\AndroidManifest.xml:1:1-30:12
INJECTED from F:\fluttertrux24\Trux24Apps\trux24apps\android\app\src\main\AndroidManifest.xml:1:1-30:12
MERGED from [:sqflite] F:\fluttertrux24\Trux24Apps\trux24apps\build\sqflite\intermediates\library_manifest\release\AndroidManifest.xml:2:1-7:12
MERGED from [:path_provider] F:\fluttertrux24\Trux24Apps\trux24apps\build\path_provider\intermediates\library_manifest\release\AndroidManifest.xml:2:1-7:12
MERGED from [:path_provider_macos] F:\fluttertrux24\Trux24Apps\trux24apps\build\path_provider_macos\intermediates\library_manifest\release\AndroidManifest.xml:2:1-7:12
MERGED from [:keyboard_visibility] F:\fluttertrux24\Trux24Apps\trux24apps\build\keyboard_visibility\intermediates\library_manifest\release\AndroidManifest.xml:2:1-7:12
MERGED from [:flutter_keyboard_visibility] F:\fluttertrux24\Trux24Apps\trux24apps\build\flutter_keyboard_visibility\intermediates\library_manifest\release\AndroidManifest.xml:2:1-7:12
MERGED from [:url_launcher] F:\fluttertrux24\Trux24Apps\trux24apps\build\url_launcher\intermediates\library_manifest\release\AndroidManifest.xml:2:1-14:12
MERGED from [:url_launcher_macos] F:\fluttertrux24\Trux24Apps\trux24apps\build\url_launcher_macos\intermediates\library_manifest\release\AndroidManifest.xml:2:1-7:12
MERGED from [:share] F:\fluttertrux24\Trux24Apps\trux24apps\build\share\intermediates\library_manifest\release\AndroidManifest.xml:2:1-7:12
MERGED from [:url_launcher_web] F:\fluttertrux24\Trux24Apps\trux24apps\build\url_launcher_web\intermediates\library_manifest\release\AndroidManifest.xml:2:1-7:12
MERGED from [androidx.fragment:fragment:1.1.0] C:\Users\HP\.gradle\caches\transforms-2\files-2.1\0986d0d74b8a2c7da8161f6370fc7744\fragment-1.1.0\AndroidManifest.xml:17:1-24:12
MERGED from [androidx.activity:activity:1.0.0] C:\Users\HP\.gradle\caches\transforms-2\files-2.1\615cab8ad6393a9c868d48761bbea666\activity-1.0.0\AndroidManifest.xml:17:1-24:12
MERGED from [androidx.viewpager:viewpager:1.0.0] C:\Users\HP\.gradle\caches\transforms-2\files-2.1\28d99d5113324aa067757f8ca41a426f\viewpager-1.0.0\AndroidManifest.xml:17:1-22:12
MERGED from [androidx.loader:loader:1.0.0] C:\Users\HP\.gradle\caches\transforms-2\files-2.1\e1bbce6b0d79e8479b70e7bd729bb743\loader-1.0.0\AndroidManifest.xml:17:1-22:12
MERGED from [androidx.customview:customview:1.0.0] C:\Users\HP\.gradle\caches\transforms-2\files-2.1\ef0bef029ab70f5fb29de019060cf5fd\customview-1.0.0\AndroidManifest.xml:17:1-22:12
MERGED from [androidx.core:core:1.1.0] C:\Users\HP\.gradle\caches\transforms-2\files-2.1\a528b13ac93e64cafa3d0480e2c93207\core-1.1.0\AndroidManifest.xml:17:1-26:12
MERGED from [androidx.lifecycle:lifecycle-runtime:2.2.0] C:\Users\HP\.gradle\caches\transforms-2\files-2.1\49ede1f7b9aa322a43288e9745adc2db\lifecycle-runtime-2.2.0\AndroidManifest.xml:17:1-24:12
MERGED from [androidx.savedstate:savedstate:1.0.0] C:\Users\HP\.gradle\caches\transforms-2\files-2.1\54d8b8735f730e83f07925f758092af3\savedstate-1.0.0\AndroidManifest.xml:17:1-24:12
MERGED from [androidx.lifecycle:lifecycle-livedata:2.0.0] C:\Users\HP\.gradle\caches\transforms-2\files-2.1\23edc849475fdda61367cb003f9b9f93\lifecycle-livedata-2.0.0\AndroidManifest.xml:17:1-22:12
MERGED from [androidx.lifecycle:lifecycle-livedata-core:2.0.0] C:\Users\HP\.gradle\caches\transforms-2\files-2.1\79f9d65ef8b1c716310f666473a689a7\lifecycle-livedata-core-2.0.0\AndroidManifest.xml:17:1-22:12
MERGED from [androidx.arch.core:core-runtime:2.0.0] C:\Users\HP\.gradle\caches\transforms-2\files-2.1\077300052aa327ee6fc9bbb0ce309b24\core-runtime-2.0.0\AndroidManifest.xml:17:1-22:12
MERGED from [androidx.versionedparcelable:versionedparcelable:1.1.0] C:\Users\HP\.gradle\caches\transforms-2\files-2.1\3a7eb299570065a3866b140e1a95969b\versionedparcelable-1.1.0\AndroidManifest.xml:17:1-27:12
MERGED from [androidx.lifecycle:lifecycle-viewmodel:2.1.0] C:\Users\HP\.gradle\caches\transforms-2\files-2.1\b80fad55c42c418cc210e235056767fb\lifecycle-viewmodel-2.1.0\AndroidManifest.xml:17:1-22:12
INJECTED from F:\fluttertrux24\Trux24Apps\trux24apps\android\app\src\main\AndroidManifest.xml:1:1-30:12
INJECTED from F:\fluttertrux24\Trux24Apps\trux24apps\android\app\src\main\AndroidManifest.xml:1:1-30:12
INJECTED from F:\fluttertrux24\Trux24Apps\trux24apps\android\app\src\main\AndroidManifest.xml:1:1-30:12
	package
		ADDED from F:\fluttertrux24\Trux24Apps\trux24apps\android\app\src\main\AndroidManifest.xml:2:5-25
		INJECTED from F:\fluttertrux24\Trux24Apps\trux24apps\android\app\src\main\AndroidManifest.xml
		INJECTED from F:\fluttertrux24\Trux24Apps\trux24apps\android\app\src\main\AndroidManifest.xml
	android:versionName
		INJECTED from F:\fluttertrux24\Trux24Apps\trux24apps\android\app\src\main\AndroidManifest.xml
		ADDED from F:\fluttertrux24\Trux24Apps\trux24apps\android\app\src\main\AndroidManifest.xml:1:1-30:12
		INJECTED from F:\fluttertrux24\Trux24Apps\trux24apps\android\app\src\main\AndroidManifest.xml
	android:versionCode
		INJECTED from F:\fluttertrux24\Trux24Apps\trux24apps\android\app\src\main\AndroidManifest.xml
		ADDED from F:\fluttertrux24\Trux24Apps\trux24apps\android\app\src\main\AndroidManifest.xml:1:1-30:12
		INJECTED from F:\fluttertrux24\Trux24Apps\trux24apps\android\app\src\main\AndroidManifest.xml
	xmlns:android
		ADDED from F:\fluttertrux24\Trux24Apps\trux24apps\android\app\src\main\AndroidManifest.xml:1:11-69
application
ADDED from F:\fluttertrux24\Trux24Apps\trux24apps\android\app\src\main\AndroidManifest.xml:8:5-29:19
MERGED from [:url_launcher] F:\fluttertrux24\Trux24Apps\trux24apps\build\url_launcher\intermediates\library_manifest\release\AndroidManifest.xml:7:5-12:19
MERGED from [:url_launcher] F:\fluttertrux24\Trux24Apps\trux24apps\build\url_launcher\intermediates\library_manifest\release\AndroidManifest.xml:7:5-12:19
MERGED from [androidx.core:core:1.1.0] C:\Users\HP\.gradle\caches\transforms-2\files-2.1\a528b13ac93e64cafa3d0480e2c93207\core-1.1.0\AndroidManifest.xml:24:5-89
MERGED from [androidx.core:core:1.1.0] C:\Users\HP\.gradle\caches\transforms-2\files-2.1\a528b13ac93e64cafa3d0480e2c93207\core-1.1.0\AndroidManifest.xml:24:5-89
MERGED from [androidx.versionedparcelable:versionedparcelable:1.1.0] C:\Users\HP\.gradle\caches\transforms-2\files-2.1\3a7eb299570065a3866b140e1a95969b\versionedparcelable-1.1.0\AndroidManifest.xml:24:5-25:19
MERGED from [androidx.versionedparcelable:versionedparcelable:1.1.0] C:\Users\HP\.gradle\caches\transforms-2\files-2.1\3a7eb299570065a3866b140e1a95969b\versionedparcelable-1.1.0\AndroidManifest.xml:24:5-25:19
	android:appComponentFactory
		ADDED from [androidx.core:core:1.1.0] C:\Users\HP\.gradle\caches\transforms-2\files-2.1\a528b13ac93e64cafa3d0480e2c93207\core-1.1.0\AndroidManifest.xml:24:18-86
	android:label
		ADDED from F:\fluttertrux24\Trux24Apps\trux24apps\android\app\src\main\AndroidManifest.xml:10:9-31
	android:icon
		ADDED from F:\fluttertrux24\Trux24Apps\trux24apps\android\app\src\main\AndroidManifest.xml:11:9-43
	android:name
		ADDED from F:\fluttertrux24\Trux24Apps\trux24apps\android\app\src\main\AndroidManifest.xml:9:9-57
activity#com.trux24.MainActivity
ADDED from F:\fluttertrux24\Trux24Apps\trux24apps\android\app\src\main\AndroidManifest.xml:12:9-23:20
	android:launchMode
		ADDED from F:\fluttertrux24\Trux24Apps\trux24apps\android\app\src\main\AndroidManifest.xml:14:13-43
	android:hardwareAccelerated
		ADDED from F:\fluttertrux24\Trux24Apps\trux24apps\android\app\src\main\AndroidManifest.xml:17:13-47
	android:windowSoftInputMode
		ADDED from F:\fluttertrux24\Trux24Apps\trux24apps\android\app\src\main\AndroidManifest.xml:18:13-55
	android:configChanges
		ADDED from F:\fluttertrux24\Trux24Apps\trux24apps\android\app\src\main\AndroidManifest.xml:16:13-163
	android:theme
		ADDED from F:\fluttertrux24\Trux24Apps\trux24apps\android\app\src\main\AndroidManifest.xml:15:13-47
	android:name
		ADDED from F:\fluttertrux24\Trux24Apps\trux24apps\android\app\src\main\AndroidManifest.xml:13:13-41
intent-filter#action:name:android.intent.action.MAIN+category:name:android.intent.category.LAUNCHER
ADDED from F:\fluttertrux24\Trux24Apps\trux24apps\android\app\src\main\AndroidManifest.xml:19:13-22:29
action#android.intent.action.MAIN
ADDED from F:\fluttertrux24\Trux24Apps\trux24apps\android\app\src\main\AndroidManifest.xml:20:17-68
	android:name
		ADDED from F:\fluttertrux24\Trux24Apps\trux24apps\android\app\src\main\AndroidManifest.xml:20:25-66
category#android.intent.category.LAUNCHER
ADDED from F:\fluttertrux24\Trux24Apps\trux24apps\android\app\src\main\AndroidManifest.xml:21:17-76
	android:name
		ADDED from F:\fluttertrux24\Trux24Apps\trux24apps\android\app\src\main\AndroidManifest.xml:21:27-74
meta-data#flutterEmbedding
ADDED from F:\fluttertrux24\Trux24Apps\trux24apps\android\app\src\main\AndroidManifest.xml:26:9-28:33
	android:value
		ADDED from F:\fluttertrux24\Trux24Apps\trux24apps\android\app\src\main\AndroidManifest.xml:28:13-30
	android:name
		ADDED from F:\fluttertrux24\Trux24Apps\trux24apps\android\app\src\main\AndroidManifest.xml:27:13-44
uses-sdk
INJECTED from F:\fluttertrux24\Trux24Apps\trux24apps\android\app\src\main\AndroidManifest.xml reason: use-sdk injection requested
INJECTED from F:\fluttertrux24\Trux24Apps\trux24apps\android\app\src\main\AndroidManifest.xml
INJECTED from F:\fluttertrux24\Trux24Apps\trux24apps\android\app\src\main\AndroidManifest.xml
MERGED from [:sqflite] F:\fluttertrux24\Trux24Apps\trux24apps\build\sqflite\intermediates\library_manifest\release\AndroidManifest.xml:5:5-44
MERGED from [:sqflite] F:\fluttertrux24\Trux24Apps\trux24apps\build\sqflite\intermediates\library_manifest\release\AndroidManifest.xml:5:5-44
MERGED from [:path_provider] F:\fluttertrux24\Trux24Apps\trux24apps\build\path_provider\intermediates\library_manifest\release\AndroidManifest.xml:5:5-44
MERGED from [:path_provider] F:\fluttertrux24\Trux24Apps\trux24apps\build\path_provider\intermediates\library_manifest\release\AndroidManifest.xml:5:5-44
MERGED from [:path_provider_macos] F:\fluttertrux24\Trux24Apps\trux24apps\build\path_provider_macos\intermediates\library_manifest\release\AndroidManifest.xml:5:5-44
MERGED from [:path_provider_macos] F:\fluttertrux24\Trux24Apps\trux24apps\build\path_provider_macos\intermediates\library_manifest\release\AndroidManifest.xml:5:5-44
MERGED from [:keyboard_visibility] F:\fluttertrux24\Trux24Apps\trux24apps\build\keyboard_visibility\intermediates\library_manifest\release\AndroidManifest.xml:5:5-44
MERGED from [:keyboard_visibility] F:\fluttertrux24\Trux24Apps\trux24apps\build\keyboard_visibility\intermediates\library_manifest\release\AndroidManifest.xml:5:5-44
MERGED from [:flutter_keyboard_visibility] F:\fluttertrux24\Trux24Apps\trux24apps\build\flutter_keyboard_visibility\intermediates\library_manifest\release\AndroidManifest.xml:5:5-44
MERGED from [:flutter_keyboard_visibility] F:\fluttertrux24\Trux24Apps\trux24apps\build\flutter_keyboard_visibility\intermediates\library_manifest\release\AndroidManifest.xml:5:5-44
MERGED from [:url_launcher] F:\fluttertrux24\Trux24Apps\trux24apps\build\url_launcher\intermediates\library_manifest\release\AndroidManifest.xml:5:5-44
MERGED from [:url_launcher] F:\fluttertrux24\Trux24Apps\trux24apps\build\url_launcher\intermediates\library_manifest\release\AndroidManifest.xml:5:5-44
MERGED from [:url_launcher_macos] F:\fluttertrux24\Trux24Apps\trux24apps\build\url_launcher_macos\intermediates\library_manifest\release\AndroidManifest.xml:5:5-44
MERGED from [:url_launcher_macos] F:\fluttertrux24\Trux24Apps\trux24apps\build\url_launcher_macos\intermediates\library_manifest\release\AndroidManifest.xml:5:5-44
MERGED from [:share] F:\fluttertrux24\Trux24Apps\trux24apps\build\share\intermediates\library_manifest\release\AndroidManifest.xml:5:5-44
MERGED from [:share] F:\fluttertrux24\Trux24Apps\trux24apps\build\share\intermediates\library_manifest\release\AndroidManifest.xml:5:5-44
MERGED from [:url_launcher_web] F:\fluttertrux24\Trux24Apps\trux24apps\build\url_launcher_web\intermediates\library_manifest\release\AndroidManifest.xml:5:5-44
MERGED from [:url_launcher_web] F:\fluttertrux24\Trux24Apps\trux24apps\build\url_launcher_web\intermediates\library_manifest\release\AndroidManifest.xml:5:5-44
MERGED from [androidx.fragment:fragment:1.1.0] C:\Users\HP\.gradle\caches\transforms-2\files-2.1\0986d0d74b8a2c7da8161f6370fc7744\fragment-1.1.0\AndroidManifest.xml:20:5-22:41
MERGED from [androidx.fragment:fragment:1.1.0] C:\Users\HP\.gradle\caches\transforms-2\files-2.1\0986d0d74b8a2c7da8161f6370fc7744\fragment-1.1.0\AndroidManifest.xml:20:5-22:41
MERGED from [androidx.activity:activity:1.0.0] C:\Users\HP\.gradle\caches\transforms-2\files-2.1\615cab8ad6393a9c868d48761bbea666\activity-1.0.0\AndroidManifest.xml:20:5-22:41
MERGED from [androidx.activity:activity:1.0.0] C:\Users\HP\.gradle\caches\transforms-2\files-2.1\615cab8ad6393a9c868d48761bbea666\activity-1.0.0\AndroidManifest.xml:20:5-22:41
MERGED from [androidx.viewpager:viewpager:1.0.0] C:\Users\HP\.gradle\caches\transforms-2\files-2.1\28d99d5113324aa067757f8ca41a426f\viewpager-1.0.0\AndroidManifest.xml:20:5-44
MERGED from [androidx.viewpager:viewpager:1.0.0] C:\Users\HP\.gradle\caches\transforms-2\files-2.1\28d99d5113324aa067757f8ca41a426f\viewpager-1.0.0\AndroidManifest.xml:20:5-44
MERGED from [androidx.loader:loader:1.0.0] C:\Users\HP\.gradle\caches\transforms-2\files-2.1\e1bbce6b0d79e8479b70e7bd729bb743\loader-1.0.0\AndroidManifest.xml:20:5-44
MERGED from [androidx.loader:loader:1.0.0] C:\Users\HP\.gradle\caches\transforms-2\files-2.1\e1bbce6b0d79e8479b70e7bd729bb743\loader-1.0.0\AndroidManifest.xml:20:5-44
MERGED from [androidx.customview:customview:1.0.0] C:\Users\HP\.gradle\caches\transforms-2\files-2.1\ef0bef029ab70f5fb29de019060cf5fd\customview-1.0.0\AndroidManifest.xml:20:5-44
MERGED from [androidx.customview:customview:1.0.0] C:\Users\HP\.gradle\caches\transforms-2\files-2.1\ef0bef029ab70f5fb29de019060cf5fd\customview-1.0.0\AndroidManifest.xml:20:5-44
MERGED from [androidx.core:core:1.1.0] C:\Users\HP\.gradle\caches\transforms-2\files-2.1\a528b13ac93e64cafa3d0480e2c93207\core-1.1.0\AndroidManifest.xml:20:5-22:41
MERGED from [androidx.core:core:1.1.0] C:\Users\HP\.gradle\caches\transforms-2\files-2.1\a528b13ac93e64cafa3d0480e2c93207\core-1.1.0\AndroidManifest.xml:20:5-22:41
MERGED from [androidx.lifecycle:lifecycle-runtime:2.2.0] C:\Users\HP\.gradle\caches\transforms-2\files-2.1\49ede1f7b9aa322a43288e9745adc2db\lifecycle-runtime-2.2.0\AndroidManifest.xml:20:5-22:41
MERGED from [androidx.lifecycle:lifecycle-runtime:2.2.0] C:\Users\HP\.gradle\caches\transforms-2\files-2.1\49ede1f7b9aa322a43288e9745adc2db\lifecycle-runtime-2.2.0\AndroidManifest.xml:20:5-22:41
MERGED from [androidx.savedstate:savedstate:1.0.0] C:\Users\HP\.gradle\caches\transforms-2\files-2.1\54d8b8735f730e83f07925f758092af3\savedstate-1.0.0\AndroidManifest.xml:20:5-22:41
MERGED from [androidx.savedstate:savedstate:1.0.0] C:\Users\HP\.gradle\caches\transforms-2\files-2.1\54d8b8735f730e83f07925f758092af3\savedstate-1.0.0\AndroidManifest.xml:20:5-22:41
MERGED from [androidx.lifecycle:lifecycle-livedata:2.0.0] C:\Users\HP\.gradle\caches\transforms-2\files-2.1\23edc849475fdda61367cb003f9b9f93\lifecycle-livedata-2.0.0\AndroidManifest.xml:20:5-44
MERGED from [androidx.lifecycle:lifecycle-livedata:2.0.0] C:\Users\HP\.gradle\caches\transforms-2\files-2.1\23edc849475fdda61367cb003f9b9f93\lifecycle-livedata-2.0.0\AndroidManifest.xml:20:5-44
MERGED from [androidx.lifecycle:lifecycle-livedata-core:2.0.0] C:\Users\HP\.gradle\caches\transforms-2\files-2.1\79f9d65ef8b1c716310f666473a689a7\lifecycle-livedata-core-2.0.0\AndroidManifest.xml:20:5-44
MERGED from [androidx.lifecycle:lifecycle-livedata-core:2.0.0] C:\Users\HP\.gradle\caches\transforms-2\files-2.1\79f9d65ef8b1c716310f666473a689a7\lifecycle-livedata-core-2.0.0\AndroidManifest.xml:20:5-44
MERGED from [androidx.arch.core:core-runtime:2.0.0] C:\Users\HP\.gradle\caches\transforms-2\files-2.1\077300052aa327ee6fc9bbb0ce309b24\core-runtime-2.0.0\AndroidManifest.xml:20:5-44
MERGED from [androidx.arch.core:core-runtime:2.0.0] C:\Users\HP\.gradle\caches\transforms-2\files-2.1\077300052aa327ee6fc9bbb0ce309b24\core-runtime-2.0.0\AndroidManifest.xml:20:5-44
MERGED from [androidx.versionedparcelable:versionedparcelable:1.1.0] C:\Users\HP\.gradle\caches\transforms-2\files-2.1\3a7eb299570065a3866b140e1a95969b\versionedparcelable-1.1.0\AndroidManifest.xml:20:5-22:41
MERGED from [androidx.versionedparcelable:versionedparcelable:1.1.0] C:\Users\HP\.gradle\caches\transforms-2\files-2.1\3a7eb299570065a3866b140e1a95969b\versionedparcelable-1.1.0\AndroidManifest.xml:20:5-22:41
MERGED from [androidx.lifecycle:lifecycle-viewmodel:2.1.0] C:\Users\HP\.gradle\caches\transforms-2\files-2.1\b80fad55c42c418cc210e235056767fb\lifecycle-viewmodel-2.1.0\AndroidManifest.xml:20:5-44
MERGED from [androidx.lifecycle:lifecycle-viewmodel:2.1.0] C:\Users\HP\.gradle\caches\transforms-2\files-2.1\b80fad55c42c418cc210e235056767fb\lifecycle-viewmodel-2.1.0\AndroidManifest.xml:20:5-44
INJECTED from F:\fluttertrux24\Trux24Apps\trux24apps\android\app\src\main\AndroidManifest.xml
INJECTED from F:\fluttertrux24\Trux24Apps\trux24apps\android\app\src\main\AndroidManifest.xml
	android:targetSdkVersion
		INJECTED from F:\fluttertrux24\Trux24Apps\trux24apps\android\app\src\main\AndroidManifest.xml
		ADDED from F:\fluttertrux24\Trux24Apps\trux24apps\android\app\src\main\AndroidManifest.xml
		INJECTED from F:\fluttertrux24\Trux24Apps\trux24apps\android\app\src\main\AndroidManifest.xml
	android:minSdkVersion
		INJECTED from F:\fluttertrux24\Trux24Apps\trux24apps\android\app\src\main\AndroidManifest.xml
		ADDED from F:\fluttertrux24\Trux24Apps\trux24apps\android\app\src\main\AndroidManifest.xml
		INJECTED from F:\fluttertrux24\Trux24Apps\trux24apps\android\app\src\main\AndroidManifest.xml
activity#io.flutter.plugins.urllauncher.WebViewActivity
ADDED from [:url_launcher] F:\fluttertrux24\Trux24Apps\trux24apps\build\url_launcher\intermediates\library_manifest\release\AndroidManifest.xml:8:9-11:74
	android:exported
		ADDED from [:url_launcher] F:\fluttertrux24\Trux24Apps\trux24apps\build\url_launcher\intermediates\library_manifest\release\AndroidManifest.xml:10:13-37
	android:theme
		ADDED from [:url_launcher] F:\fluttertrux24\Trux24Apps\trux24apps\build\url_launcher\intermediates\library_manifest\release\AndroidManifest.xml:11:13-71
	android:name
		ADDED from [:url_launcher] F:\fluttertrux24\Trux24Apps\trux24apps\build\url_launcher\intermediates\library_manifest\release\AndroidManifest.xml:9:13-74
